[
  {
    "id": "123",
    "name": "Server album 123",
    "images": [
      {
        "url": "https://www.placecage.com/c/100/100",
        "height": 200,
        "width": 200
      }
    ]
  },
  {
    "id": "234",
    "name": "Server album 234",
    "images": [
      {
        "url": "https://www.placecage.com/c/200/200",
        "height": 200,
        "width": 200
      }
    ]
  },
  {
    "id": "345",
    "name": "Server album 345",
    "images": [
      {
        "url": "https://www.placecage.com/c/300/300",
        "height": 200,
        "width": 200
      }
    ]
  },
  {
    "id": "456",
    "name": "Album 456",
    "images": [
      {
        "url": "https://www.placecage.com/c/400/400",
        "height": 200,
        "width": 200
      }
    ]
  }
]